[
    {"class_name": "background", "weight": 1.0, "event_types": [
        {
            "txt_files": "ttbar.txt",
            "n_events": 100000,
            "tensor_files": "ttbar.pt",
            "name": "ttbar"
        },
        {
            "txt_files": "Z+jets.txt",
            "n_events": 50000,
            "tensor_files": "Z+jets.pt",
            "name": "Z+jets"
        },
        {
            "txt_files": "W+jets.txt",
            "n_events": 50000,
            "tensor_files": "W+jets.pt",
            "name": "W+jets"
        },
        {
            "txt_files": "singleT.txt",
            "n_events": 0,
            "tensor_files": "singleT.pt",
            "name": "Single Top"
        },
        {
            "txt_files": "ttZ.txt",
            "n_events": 0,
            "tensor_files": "ttZ.pt",
            "name": "ttZ"
        },
        {
            "txt_files": "others.txt",
            "n_events": 0,
            "tensor_files": "others.pt",
            "name": "Other backgrounds"
        }        
        ]
    },
    {"class_name": "signal", "weight": 1.5, "event_types": [
        {
            "txt_files": "allDiagonal.txt",
            "n_events": 40000,
            "tensor_files": "allDiagonal.pt",
            "name": "delta m = 175 GeV signal "
        }
        ]
    }
]
